An Antarctic Tour of the Tidyverse
…
```r
# try each of these commands in the console and see if you can spot the differences!

as_tibble(penguins)
as.data.frame(penguins)
```
]

.panel[.panel-name[Result]
.pull-left[

```r
as_tibble(penguins)
## # A tibble: 344 × 8
##    species island    bill_length_mm bill_depth_mm
##    <fct>   <fct>              <dbl>         <dbl>
##  1 Adelie  Torgersen           39.1          18.7
##  2 Adelie  Torgersen           39.5          17.4
##  3 Adelie  Torgersen           40.3          18  
##  4 Adelie  Torgersen           NA            NA  
##  5 Adelie  Torgersen           36.7          19.3
##  6 Adelie  Torgersen           39.3          20.6
##  7 Adelie  Torgersen           38.9          17.8
##  8 Adelie  Torgersen           39.2          19.6
##  9 Adelie  Torgersen           34.1          18.1
## 10 Adelie  Torgersen           42            20.2
## # … with 334 more rows, and 4 more variables:
## #   flipper_length_mm <int>, body_mass_g <int>,
## #   sex <fct>, year <int>
```
…
# dplyr: exercise

.panelset[

.panel[.panel-name[Select]
.center[ 
### Can you spot the difference in performing the same operation?
]
.pull-left[

```r
select(penguins, species, sex, body_mass_g)
## # A tibble: 344 × 3
##    species sex    body_mass_g
##    <fct>   <fct>        <int>
##  1 Adelie  male          3750
##  2 Adelie  female        3800
##  3 Adelie  female        3250
##  4 Adelie  <NA>            NA
##  5 Adelie  female        3450
##  6 Adelie  male          3650
##  7 Adelie  female        3625
##  8 Adelie  male          4675
##  9 Adelie  <NA>          3475
## 10 Adelie  <NA>          4250
## # … with 334 more rows
```
]

.pull-right[

```r
penguins %>%
  select(species, sex, body_mass_g)
## # A tibble: 344 × 3
##    species sex    body_mass_g
##    <fct>   <fct>        <int>
##  1 Adelie  male          3750
##  2 Adelie  female        3800
##  3 Adelie  female        3250
##  4 Adelie  <NA>            NA
##  5 Adelie  female        3450
##  6 Adelie  male          3650
##  7 Adelie  female        3625
##  8 Adelie  male          4675
##  9 Adelie  <NA>          3475
## 10 Adelie  <NA>          4250
## # … with 334 more rows
```
…
```r
penguins %>%
  select(species, sex, body_mass_g) %>%
* arrange(desc(body_mass_g))
## # A tibble: 344 × 3
##    species sex   body_mass_g
##    <fct>   <fct>       <int>
##  1 Gentoo  male         6300
##  2 Gentoo  male         6050
##  3 Gentoo  male         6000
##  4 Gentoo  male         6000
##  5 Gentoo  male         5950
##  6 Gentoo  male         5950
##  7 Gentoo  male         5850
##  8 Gentoo  male         5850
##  9 Gentoo  male         5850
## 10 Gentoo  male         5800
## # … with 334 more rows
```
…
]

.panel[.panel-name[Result]
### The result is a new factor **year_factor** with levels **2007**, **2008**, and **2009**
.pull-left[

```r
penguins_new <-
  penguins %>%
  mutate(year_factor = 
*          factor(year,
*                 levels = unique(year)))
penguins_new
## # A tibble: 344 × 9
##    species island    bill_length_mm bill_depth_mm
##    <fct>   <fct>              <dbl>         <dbl>
##  1 Adelie  Torgersen           39.1          18.7
##  2 Adelie  Torgersen           39.5          17.4
##  3 Adelie  Torgersen           40.3          18  
##  4 Adelie  Torgersen           NA            NA  
##  5 Adelie  Torgersen           36.7          19.3
##  6 Adelie  Torgersen           39.3          20.6
##  7 Adelie  Torgersen           38.9          17.8
##  8 Adelie  Torgersen           39.2          19.6
##  9 Adelie  Torgersen           34.1          18.1
## 10 Adelie  Torgersen           42            20.2
## # … with 334 more rows, and 5 more variables:
## #   flipper_length_mm <int>, body_mass_g <int>,
## #   sex <fct>, year <int>, year_factor <fct>
```
…
# stringr: exercise

.panelset[
.panel[.panel-name[Mutate]

### What does this chunk do?

```r
penguins %>%
  select(species, island) %>%
* mutate(ISLAND = str_to_upper(island))
## # A tibble: 344 × 3
##    species island    ISLAND   
##    <fct>   <fct>     <chr>    
##  1 Adelie  Torgersen TORGERSEN
##  2 Adelie  Torgersen TORGERSEN
##  3 Adelie  Torgersen TORGERSEN
##  4 Adelie  Torgersen TORGERSEN
##  5 Adelie  Torgersen TORGERSEN
##  6 Adelie  Torgersen TORGERSEN
##  7 Adelie  Torgersen TORGERSEN
##  8 Adelie  Torgersen TORGERSEN
##  9 Adelie  Torgersen TORGERSEN
## 10 Adelie  Torgersen TORGERSEN
## # … with 334 more rows
```
]

.panel[.panel-name[Join]

### How about this one?

```r
penguins %>%
  select(species, island) %>%
  mutate(ISLAND = str_to_upper(island)) %>%
* mutate(species_island = str_c(species, ISLAND, sep = "_"))
## # A tibble: 344 × 4
##    species island    ISLAND    species_island  
##    <fct>   <fct>     <chr>     <chr>           
##  1 Adelie  Torgersen TORGERSEN Adelie_TORGERSEN
##  2 Adelie  Torgersen TORGERSEN Adelie_TORGERSEN
##  3 Adelie  Torgersen TORGERSEN Adelie_TORGERSEN
##  4 Adelie  Torgersen TORGERSEN Adelie_TORGERSEN
##  5 Adelie  Torgersen TORGERSEN Adelie_TORGERSEN
##  6 Adelie  Torgersen TORGERSEN Adelie_TORGERSEN
##  7 Adelie  Torgersen TORGERSEN Adelie_TORGERSEN
##  8 Adelie  Torgersen TORGERSEN Adelie_TORGERSEN
##  9 Adelie  Torgersen TORGERSEN Adelie_TORGERSEN
## 10 Adelie  Torgersen TORGERSEN Adelie_TORGERSEN
## # … with 334 more rows
```
…
# tidyr: exercise

.panelset[
.panel[.panel-name[Un-tidying]

### Both penguin datasets are already tidy!

We can pretend that `penguins` wasn't tidy and that it looked instead like `untidy_penguins` below, where **body_mass_g** was recorded separately for *male*, *female*, and *NA* **sex** penguins.

```r
untidy_penguins <- 
  penguins %>% pivot_wider(names_from = sex, values_from = body_mass_g)
untidy_penguins
## # A tibble: 344 × 9
##    species island    bill_length_mm bill_depth_mm
##    <fct>   <fct>              <dbl>         <dbl>
##  1 Adelie  Torgersen           39.1          18.7
##  2 Adelie  Torgersen           39.5          17.4
##  3 Adelie  Torgersen           40.3          18  
##  4 Adelie  Torgersen           NA            NA  
##  5 Adelie  Torgersen           36.7          19.3
##  6 Adelie  Torgersen           39.3          20.6
##  7 Adelie  Torgersen           38.9          17.8
##  8 Adelie  Torgersen           39.2          19.6
##  9 Adelie  Torgersen           34.1          18.1
## 10 Adelie  Torgersen           42            20.2
## # … with 334 more rows, and 5 more variables:
## #   flipper_length_mm <int>, year <int>, male <int>,
## #   female <int>, `NA` <int>
```

]

.panel[.panel-name[Re-tidying]

### Now let's make it tidy again!

We'll use the help of `pivot_longer()`

```r
untidy_penguins %>%
* pivot_longer(cols = male:`NA`,
*              names_to = "sex",
*              values_to = "body_mass_g")
## # A tibble: 1,032 × 8
##    species island    bill_length_mm bill_depth_mm
##    <fct>   <fct>              <dbl>         <dbl>
##  1 Adelie  Torgersen           39.1          18.7
##  2 Adelie  Torgersen           39.1          18.7
##  3 Adelie  Torgersen           39.1          18.7
##  4 Adelie  Torgersen           39.5          17.4
##  5 Adelie  Torgersen           39.5          17.4
##  6 Adelie  Torgersen           39.5          17.4
##  7 Adelie  Torgersen           40.3          18  
##  8 Adelie  Torgersen           40.3          18  
##  9 Adelie  Torgersen           40.3          18  
## 10 Adelie  Torgersen           NA            NA  
## # … with 1,022 more rows, and 4 more variables:
## #   flipper_length_mm <int>, year <int>, sex <chr>,
## #   body_mass_g <int>
```
…
