Silvia Canelón – dplyr
…
Can you spot the difference in these operations?

select(penguins, 
       species,
       sex,
       body_mass_g)

# A tibble: 344 × 3
   species sex    body_mass_g
   <fct>   <fct>        <int>
 1 Adelie  male          3750
 2 Adelie  female        3800
 3 Adelie  female        3250
 4 Adelie  <NA>            NA
 5 Adelie  female        3450
 6 Adelie  male          3650
 7 Adelie  female        3625
 8 Adelie  male          4675
 9 Adelie  <NA>          3475
10 Adelie  <NA>          4250
# ℹ 334 more rows

penguins |> 
  select(species,
         sex,
         body_mass_g)

# A tibble: 344 × 3
   species sex    body_mass_g
   <fct>   <fct>        <int>
 1 Adelie  male          3750
 2 Adelie  female        3800
 3 Adelie  female        3250
 4 Adelie  <NA>            NA
 5 Adelie  female        3450
 6 Adelie  male          3650
 7 Adelie  female        3625
 8 Adelie  male          4675
 9 Adelie  <NA>          3475
10 Adelie  <NA>          4250
# ℹ 334 more rows
…
penguins |>
  select(species, sex, body_mass_g) |>
  arrange(desc(body_mass_g))

# A tibble: 344 × 3
   species sex   body_mass_g
   <fct>   <fct>       <int>
 1 Gentoo  male         6300
 2 Gentoo  male         6050
 3 Gentoo  male         6000
 4 Gentoo  male         6000
 5 Gentoo  male         5950
 6 Gentoo  male         5950
 7 Gentoo  male         5850
 8 Gentoo  male         5850
 9 Gentoo  male         5850
10 Gentoo  male         5800
# ℹ 334 more rows
…
