Silvia Canelón – stringr
…
Package documentation: https://stringr.tidyverse.org

stringr: exercise

Mutate
Join

What does this chunk do?

penguins |>
  select(species, island) |>
  mutate(ISLAND = str_to_upper(island))

# A tibble: 344 × 3
   species island    ISLAND   
   <fct>   <fct>     <chr>    
 1 Adelie  Torgersen TORGERSEN
 2 Adelie  Torgersen TORGERSEN
 3 Adelie  Torgersen TORGERSEN
 4 Adelie  Torgersen TORGERSEN
 5 Adelie  Torgersen TORGERSEN
 6 Adelie  Torgersen TORGERSEN
 7 Adelie  Torgersen TORGERSEN
 8 Adelie  Torgersen TORGERSEN
 9 Adelie  Torgersen TORGERSEN
10 Adelie  Torgersen TORGERSEN
# ℹ 334 more rows

How about this one?

penguins |>
  select(species, island) |>
  mutate(ISLAND = str_to_upper(island)) |>
  mutate(species_island = str_c(species, ISLAND, sep = "_"))

# A tibble: 344 × 4
   species island    ISLAND    species_island  
   <fct>   <fct>     <chr>     <chr>           
 1 Adelie  Torgersen TORGERSEN Adelie_TORGERSEN
 2 Adelie  Torgersen TORGERSEN Adelie_TORGERSEN
 3 Adelie  Torgersen TORGERSEN Adelie_TORGERSEN
 4 Adelie  Torgersen TORGERSEN Adelie_TORGERSEN
 5 Adelie  Torgersen TORGERSEN Adelie_TORGERSEN
 6 Adelie  Torgersen TORGERSEN Adelie_TORGERSEN
 7 Adelie  Torgersen TORGERSEN Adelie_TORGERSEN
 8 Adelie  Torgersen TORGERSEN Adelie_TORGERSEN
 9 Adelie  Torgersen TORGERSEN Adelie_TORGERSEN
10 Adelie  Torgersen TORGERSEN Adelie_TORGERSEN
# ℹ 334 more rows
