Silvia Canelón - An Antarctic Tour of the Tidyverse v2.0
…
Option 2: load using filepath

read_csv("tutorial/raw_adelie.csv")

Option 3: Lucky for us, the palmerpenguins 📦 compiles data from all three species together! Check the clean data and raw data tabs to learn more.

Clean data

penguins contains a clean dataset

penguins <- palmerpenguins::penguins
penguins

# A tibble: 344 × 8
   species island    bill_length_mm bill_depth_mm flipper_length_mm body_mass_g
   <fct>   <fct>              <dbl>         <dbl>             <int>       <int>
 1 Adelie  Torgersen           39.1          18.7               181        3750
 2 Adelie  Torgersen           39.5          17.4               186        3800
 3 Adelie  Torgersen           40.3          18                 195        3250
 4 Adelie  Torgersen           NA            NA                  NA          NA
 5 Adelie  Torgersen           36.7          19.3               193        3450
 6 Adelie  Torgersen           39.3          20.6               190        3650
 7 Adelie  Torgersen           38.9          17.8               181        3625
 8 Adelie  Torgersen           39.2          19.6               195        4675
 9 Adelie  Torgersen           34.1          18.1               193        3475
10 Adelie  Torgersen           42            20.2               190        4250
# ℹ 334 more rows
# ℹ 2 more variables: sex <fct>, year <int>

Raw data

penguins_raw contains the raw data

palmerpenguins::penguins_raw

# A tibble: 344 × 17
   studyName `Sample Number` Species         Region Island Stage `Individual ID`
   <chr>               <dbl> <chr>           <chr>  <chr>  <chr> <chr>          
 1 PAL0708                 1 Adelie Penguin… Anvers Torge… Adul… N1A1           
 2 PAL0708                 2 Adelie Penguin… Anvers Torge… Adul… N1A2           
 3 PAL0708                 3 Adelie Penguin… Anvers Torge… Adul… N2A1           
 4 PAL0708                 4 Adelie Penguin… Anvers Torge… Adul… N2A2           
 5 PAL0708                 5 Adelie Penguin… Anvers Torge… Adul… N3A1           
 6 PAL0708                 6 Adelie Penguin… Anvers Torge… Adul… N3A2           
 7 PAL0708                 7 Adelie Penguin… Anvers Torge… Adul… N4A1           
 8 PAL0708                 8 Adelie Penguin… Anvers Torge… Adul… N4A2           
 9 PAL0708                 9 Adelie Penguin… Anvers Torge… Adul… N5A1           
10 PAL0708                10 Adelie Penguin… Anvers Torge… Adul… N5A2           
# ℹ 334 more rows
# ℹ 10 more variables: `Clutch Completion` <chr>, `Date Egg` <date>,
#   `Culmen Length (mm)` <dbl>, `Culmen Depth (mm)` <dbl>,
#   `Flipper Length (mm)` <dbl>, `Body Mass (g)` <dbl>, Sex <chr>,
#   `Delta 15 N (o/oo)` <dbl>, `Delta 13 C (o/oo)` <dbl>, Comments <chr>
…
Code

Let’s take a look at the differences!

# try each of these commands in the console and see if 
# you can spot the differences!

as_tibble(penguins)
as.data.frame(penguins)

Result

as_tibble(penguins)

# A tibble: 344 × 8
   species island    bill_length_mm bill_depth_mm flipper_length_mm body_mass_g
   <fct>   <fct>              <dbl>         <dbl>             <int>       <int>
 1 Adelie  Torgersen           39.1          18.7               181        3750
 2 Adelie  Torgersen           39.5          17.4               186        3800
 3 Adelie  Torgersen           40.3          18                 195        3250
 4 Adelie  Torgersen           NA            NA                  NA          NA
 5 Adelie  Torgersen           36.7          19.3               193        3450
 6 Adelie  Torgersen           39.3          20.6               190        3650
 7 Adelie  Torgersen           38.9          17.8               181        3625
 8 Adelie  Torgersen           39.2          19.6               195        4675
 9 Adelie  Torgersen           34.1          18.1               193        3475
10 Adelie  Torgersen           42            20.2               190        4250
# ℹ 334 more rows
# ℹ 2 more variables: sex <fct>, year <int>
…
Package documentation: https://dplyr.tidyverse.org

Exercise

Select

Can you spot the difference in the following two operations?

select(penguins, 
       species,
       sex,
       body_mass_g)

# A tibble: 344 × 3
   species sex    body_mass_g
   <fct>   <fct>        <int>
 1 Adelie  male          3750
 2 Adelie  female        3800
 3 Adelie  female        3250
 4 Adelie  <NA>            NA
 5 Adelie  female        3450
 6 Adelie  male          3650
 7 Adelie  female        3625
 8 Adelie  male          4675
 9 Adelie  <NA>          3475
10 Adelie  <NA>          4250
# ℹ 334 more rows

penguins |> 
  select(species,
         sex,
         body_mass_g)

# A tibble: 344 × 3
   species sex    body_mass_g
   <fct>   <fct>        <int>
 1 Adelie  male          3750
 2 Adelie  female        3800
 3 Adelie  female        3250
 4 Adelie  <NA>            NA
 5 Adelie  female        3450
 6 Adelie  male          3650
 7 Adelie  female        3625
 8 Adelie  male          4675
 9 Adelie  <NA>          3475
10 Adelie  <NA>          4250
# ℹ 334 more rows

The first defines the penguins dataset with the select() function, while the second uses the pipe |> to pass the penguins dataset along to select()

Arrange

We can use arrange() to arrange our data in descending order by body_mass_g

penguins |>
  select(species, sex, body_mass_g) |>
  arrange(desc(body_mass_g))

# A tibble: 344 × 3
   species sex   body_mass_g
   <fct>   <fct>       <int>
 1 Gentoo  male         6300
 2 Gentoo  male         6050
 3 Gentoo  male         6000
 4 Gentoo  male         6000
 5 Gentoo  male         5950
 6 Gentoo  male         5950
 7 Gentoo  male         5850
 8 Gentoo  male         5850
 9 Gentoo  male         5850
10 Gentoo  male         5800
# ℹ 334 more rows
…
Exercise

Code

Currently the year variable in penguins is continuous from 2007 to 2009

Usually this isn’t what we want and we might want to turn it into a categorical variable instead

The factor() function is perfect for this

penguins |> 
  mutate(year_factor = factor(year, levels = unique(year)))

# A tibble: 344 × 9
   species island    bill_length_mm bill_depth_mm flipper_length_mm body_mass_g
   <fct>   <fct>              <dbl>         <dbl>             <int>       <int>
 1 Adelie  Torgersen           39.1          18.7               181        3750
 2 Adelie  Torgersen           39.5          17.4               186        3800
 3 Adelie  Torgersen           40.3          18                 195        3250
 4 Adelie  Torgersen           NA            NA                  NA          NA
 5 Adelie  Torgersen           36.7          19.3               193        3450
 6 Adelie  Torgersen           39.3          20.6               190        3650
 7 Adelie  Torgersen           38.9          17.8               181        3625
 8 Adelie  Torgersen           39.2          19.6               195        4675
 9 Adelie  Torgersen           34.1          18.1               193        3475
10 Adelie  Torgersen           42            20.2               190        4250
# ℹ 334 more rows
# ℹ 3 more variables: sex <fct>, year <int>, year_factor <fct>

Result

The result is a new variable year_factor with factor levels 2007, 2008, and 2009

penguins_new <- 
  penguins |> 
  mutate(year_factor = factor(year, levels = unique(year)))
penguins_new

# A tibble: 344 × 9
   species island    bill_length_mm bill_depth_mm flipper_length_mm body_mass_g
   <fct>   <fct>              <dbl>         <dbl>             <int>       <int>
 1 Adelie  Torgersen           39.1          18.7               181        3750
 2 Adelie  Torgersen           39.5          17.4               186        3800
 3 Adelie  Torgersen           40.3          18                 195        3250
 4 Adelie  Torgersen           NA            NA                  NA          NA
 5 Adelie  Torgersen           36.7          19.3               193        3450
 6 Adelie  Torgersen           39.3          20.6               190        3650
 7 Adelie  Torgersen           38.9          17.8               181        3625
 8 Adelie  Torgersen           39.2          19.6               195        4675
 9 Adelie  Torgersen           34.1          18.1               193        3475
10 Adelie  Torgersen           42            20.2               190        4250
# ℹ 334 more rows
# ℹ 3 more variables: sex <fct>, year <int>, year_factor <fct>
…
R for Data Science: Ch 14 Strings

Package documentation: https://stringr.tidyverse.org

Exercise

Mutate

What does this chunk do?

penguins |>
  select(species, island) |>
  mutate(ISLAND = str_to_upper(island))

# A tibble: 344 × 3
   species island    ISLAND   
   <fct>   <fct>     <chr>    
 1 Adelie  Torgersen TORGERSEN
 2 Adelie  Torgersen TORGERSEN
 3 Adelie  Torgersen TORGERSEN
 4 Adelie  Torgersen TORGERSEN
 5 Adelie  Torgersen TORGERSEN
 6 Adelie  Torgersen TORGERSEN
 7 Adelie  Torgersen TORGERSEN
 8 Adelie  Torgersen TORGERSEN
 9 Adelie  Torgersen TORGERSEN
10 Adelie  Torgersen TORGERSEN
# ℹ 334 more rows

It creates a new variable ISLAND that transforms island observations to uppercase

Join

How about this one?

penguins |>
  select(species, island) |>
  mutate(ISLAND = str_to_upper(island)) |>
  mutate(species_island = str_c(species, ISLAND, sep = "_"))

# A tibble: 344 × 4
   species island    ISLAND    species_island  
   <fct>   <fct>     <chr>     <chr>           
 1 Adelie  Torgersen TORGERSEN Adelie_TORGERSEN
 2 Adelie  Torgersen TORGERSEN Adelie_TORGERSEN
 3 Adelie  Torgersen TORGERSEN Adelie_TORGERSEN
 4 Adelie  Torgersen TORGERSEN Adelie_TORGERSEN
 5 Adelie  Torgersen TORGERSEN Adelie_TORGERSEN
 6 Adelie  Torgersen TORGERSEN Adelie_TORGERSEN
 7 Adelie  Torgersen TORGERSEN Adelie_TORGERSEN
 8 Adelie  Torgersen TORGERSEN Adelie_TORGERSEN
 9 Adelie  Torgersen TORGERSEN Adelie_TORGERSEN
10 Adelie  Torgersen TORGERSEN Adelie_TORGERSEN
# ℹ 334 more rows
…
Exercise

Un-tidying

Both penguin datasets are already tidy!

We can pretend that penguins wasn’t tidy and that it looked instead like untidy_penguins below, where body_mass_g was recorded separately for male, female, and NA sex penguins.

untidy_penguins <- 
  penguins |> 
  pivot_wider(names_from = sex, values_from = body_mass_g)
untidy_penguins

# A tibble: 344 × 9
   species island    bill_length_mm bill_depth_mm flipper_length_mm  year  male
   <fct>   <fct>              <dbl>         <dbl>             <int> <int> <int>
 1 Adelie  Torgersen           39.1          18.7               181  2007  3750
 2 Adelie  Torgersen           39.5          17.4               186  2007    NA
 3 Adelie  Torgersen           40.3          18                 195  2007    NA
 4 Adelie  Torgersen           NA            NA                  NA  2007    NA
 5 Adelie  Torgersen           36.7          19.3               193  2007    NA
 6 Adelie  Torgersen           39.3          20.6               190  2007  3650
 7 Adelie  Torgersen           38.9          17.8               181  2007    NA
 8 Adelie  Torgersen           39.2          19.6               195  2007  4675
 9 Adelie  Torgersen           34.1          18.1               193  2007    NA
10 Adelie  Torgersen           42            20.2               190  2007    NA
# ℹ 334 more rows
# ℹ 2 more variables: female <int>, `NA` <int>

Re-tidying

Now let’s make it tidy again!

We’ll use the help of pivot_longer()

untidy_penguins |>
  pivot_longer(cols = male:`NA`,           
               names_to = "sex",           
               values_to = "body_mass_g")

# A tibble: 1,032 × 8
   species island    bill_length_mm bill_depth_mm flipper_length_mm  year sex   
   <fct>   <fct>              <dbl>         <dbl>             <int> <int> <chr> 
 1 Adelie  Torgersen           39.1          18.7               181  2007 male  
 2 Adelie  Torgersen           39.1          18.7               181  2007 female
 3 Adelie  Torgersen           39.1          18.7               181  2007 NA    
 4 Adelie  Torgersen           39.5          17.4               186  2007 male  
 5 Adelie  Torgersen           39.5          17.4               186  2007 female
 6 Adelie  Torgersen           39.5          17.4               186  2007 NA    
 7 Adelie  Torgersen           40.3          18                 195  2007 male  
 8 Adelie  Torgersen           40.3          18                 195  2007 female
 9 Adelie  Torgersen           40.3          18                 195  2007 NA    
10 Adelie  Torgersen           NA            NA                  NA  2007 male  
# ℹ 1,022 more rows
# ℹ 1 more variable: body_mass_g <int>
…
R for Data Science: Ch 16 Dates and times

Package documentation: https://lubridate.tidyverse.org

Exercise

Read data in

Recall that palmperpenguins includes raw data as well

penguins_raw <- palmerpenguins::penguins_raw
penguins_raw

# A tibble: 344 × 17
   studyName `Sample Number` Species         Region Island Stage `Individual ID`
   <chr>               <dbl> <chr>           <chr>  <chr>  <chr> <chr>          
 1 PAL0708                 1 Adelie Penguin… Anvers Torge… Adul… N1A1           
 2 PAL0708                 2 Adelie Penguin… Anvers Torge… Adul… N1A2           
 3 PAL0708                 3 Adelie Penguin… Anvers Torge… Adul… N2A1           
 4 PAL0708                 4 Adelie Penguin… Anvers Torge… Adul… N2A2           
 5 PAL0708                 5 Adelie Penguin… Anvers Torge… Adul… N3A1           
 6 PAL0708                 6 Adelie Penguin… Anvers Torge… Adul… N3A2           
 7 PAL0708                 7 Adelie Penguin… Anvers Torge… Adul… N4A1           
 8 PAL0708                 8 Adelie Penguin… Anvers Torge… Adul… N4A2           
 9 PAL0708                 9 Adelie Penguin… Anvers Torge… Adul… N5A1           
10 PAL0708                10 Adelie Penguin… Anvers Torge… Adul… N5A2           
# ℹ 334 more rows
# ℹ 10 more variables: `Clutch Completion` <chr>, `Date Egg` <date>,
#   `Culmen Length (mm)` <dbl>, `Culmen Depth (mm)` <dbl>,
#   `Flipper Length (mm)` <dbl>, `Body Mass (g)` <dbl>, Sex <chr>,
#   `Delta 15 N (o/oo)` <dbl>, `Delta 13 C (o/oo)` <dbl>, Comments <chr>

View date-times

In the raw data, Date Egg is the date that a penguin nest in the study was observed with 1 egg

Check out ?penguins_raw to learn more about the other variables in this dataset

penguins_raw |> select(Species, Sex, `Date Egg`)

# A tibble: 344 × 3
   Species                             Sex    `Date Egg`
   <chr>                               <chr>  <date>    
 1 Adelie Penguin (Pygoscelis adeliae) MALE   2007-11-11
 2 Adelie Penguin (Pygoscelis adeliae) FEMALE 2007-11-11
 3 Adelie Penguin (Pygoscelis adeliae) FEMALE 2007-11-16
 4 Adelie Penguin (Pygoscelis adeliae) <NA>   2007-11-16
 5 Adelie Penguin (Pygoscelis adeliae) FEMALE 2007-11-16
 6 Adelie Penguin (Pygoscelis adeliae) MALE   2007-11-16
 7 Adelie Penguin (Pygoscelis adeliae) FEMALE 2007-11-15
 8 Adelie Penguin (Pygoscelis adeliae) MALE   2007-11-15
 9 Adelie Penguin (Pygoscelis adeliae) <NA>   2007-11-09
10 Adelie Penguin (Pygoscelis adeliae) <NA>   2007-11-09
# ℹ 334 more rows
Get date components

We can use year(), month(), and day() to extract different components from Date Egg

In addition, month() provides some options to let us decide whether we want the month displayed as a character string, and whether we want that string abbreviated

penguins_raw |> 
  select(Species, Sex, `Date Egg`) |> 
  mutate(Year = year(`Date Egg`),
         Month = month(`Date Egg`, 
                       label = TRUE,
                       abbr = FALSE),
         Day = day(`Date Egg`))

# A tibble: 344 × 6
   Species                             Sex    `Date Egg`  Year Month      Day
   <chr>                               <chr>  <date>     <dbl> <ord>    <int>
 1 Adelie Penguin (Pygoscelis adeliae) MALE   2007-11-11  2007 November    11
 2 Adelie Penguin (Pygoscelis adeliae) FEMALE 2007-11-11  2007 November    11
 3 Adelie Penguin (Pygoscelis adeliae) FEMALE 2007-11-16  2007 November    16
 4 Adelie Penguin (Pygoscelis adeliae) <NA>   2007-11-16  2007 November    16
 5 Adelie Penguin (Pygoscelis adeliae) FEMALE 2007-11-16  2007 November    16
 6 Adelie Penguin (Pygoscelis adeliae) MALE   2007-11-16  2007 November    16
 7 Adelie Penguin (Pygoscelis adeliae) FEMALE 2007-11-15  2007 November    15
 8 Adelie Penguin (Pygoscelis adeliae) MALE   2007-11-15  2007 November    15
 9 Adelie Penguin (Pygoscelis adeliae) <NA>   2007-11-09  2007 November     9
10 Adelie Penguin (Pygoscelis adeliae) <NA>   2007-11-09  2007 November     9
# ℹ 334 more rows
…
