…
### Clean data

`penguins` contains a clean dataset

::: {.cell}

```{.r .cell-code}
penguins <- palmerpenguins::penguins
penguins
```

::: {.cell-output .cell-output-stdout}
```
# A tibble: 344 × 8
   species island    bill_length_mm bill_depth_mm flipper_…¹ body_…² sex    year
   <fct>   <fct>              <dbl>         <dbl>      <int>   <int> <fct> <int>
 1 Adelie  Torgersen           39.1          18.7        181    3750 male   2007
 2 Adelie  Torgersen           39.5          17.4        186    3800 fema…  2007
 3 Adelie  Torgersen           40.3          18          195    3250 fema…  2007
 4 Adelie  Torgersen           NA            NA           NA      NA <NA>   2007
 5 Adelie  Torgersen           36.7          19.3        193    3450 fema…  2007
 6 Adelie  Torgersen           39.3          20.6        190    3650 male   2007
 7 Adelie  Torgersen           38.9          17.8        181    3625 fema…  2007
 8 Adelie  Torgersen           39.2          19.6        195    4675 male   2007
 9 Adelie  Torgersen           34.1          18.1        193    3475 <NA>   2007
10 Adelie  Torgersen           42            20.2        190    4250 <NA>   2007
# … with 334 more rows, and abbreviated variable names ¹​flipper_length_mm,
#   ²​body_mass_g
```
…
### Raw data

`penguins_raw` contains the raw data

::: {.cell}

```{.r .cell-code}
palmerpenguins::penguins_raw
```

::: {.cell-output .cell-output-stdout}
```
# A tibble: 344 × 17
   studyName Sample Num…¹ Species Region Island Stage Indiv…² Clutc…³ `Date Egg`
   <chr>            <dbl> <chr>   <chr>  <chr>  <chr> <chr>   <chr>   <date>    
 1 PAL0708              1 Adelie… Anvers Torge… Adul… N1A1    Yes     2007-11-11
 2 PAL0708              2 Adelie… Anvers Torge… Adul… N1A2    Yes     2007-11-11
 3 PAL0708              3 Adelie… Anvers Torge… Adul… N2A1    Yes     2007-11-16
 4 PAL0708              4 Adelie… Anvers Torge… Adul… N2A2    Yes     2007-11-16
 5 PAL0708              5 Adelie… Anvers Torge… Adul… N3A1    Yes     2007-11-16
 6 PAL0708              6 Adelie… Anvers Torge… Adul… N3A2    Yes     2007-11-16
 7 PAL0708              7 Adelie… Anvers Torge… Adul… N4A1    No      2007-11-15
 8 PAL0708              8 Adelie… Anvers Torge… Adul… N4A2    No      2007-11-15
 9 PAL0708              9 Adelie… Anvers Torge… Adul… N5A1    Yes     2007-11-09
10 PAL0708             10 Adelie… Anvers Torge… Adul… N5A2    Yes     2007-11-09
# … with 334 more rows, 8 more variables: `Culmen Length (mm)` <dbl>,
#   `Culmen Depth (mm)` <dbl>, `Flipper Length (mm)` <dbl>,
#   `Body Mass (g)` <dbl>, Sex <chr>, `Delta 15 N (o/oo)` <dbl>,
#   `Delta 13 C (o/oo)` <dbl>, Comments <chr>, and abbreviated variable names
#   ¹​`Sample Number`, ²​`Individual ID`, ³​`Clutch Completion`
```
…
::: {.column}

::: {.cell}

```{.r .cell-code}
select(penguins, 
       species,
       sex,
       body_mass_g)
```

::: {.cell-output .cell-output-stdout}
```
# A tibble: 344 × 3
   species sex    body_mass_g
   <fct>   <fct>        <int>
 1 Adelie  male          3750
 2 Adelie  female        3800
 3 Adelie  female        3250
 4 Adelie  <NA>            NA
 5 Adelie  female        3450
 6 Adelie  male          3650
 7 Adelie  female        3625
 8 Adelie  male          4675
 9 Adelie  <NA>          3475
10 Adelie  <NA>          4250
# … with 334 more rows
```
…
::: {.column}

::: {.cell}

```{.r .cell-code}
penguins |> 
  select(species,
         sex,
         body_mass_g)
```

::: {.cell-output .cell-output-stdout}
```
# A tibble: 344 × 3
   species sex    body_mass_g
   <fct>   <fct>        <int>
 1 Adelie  male          3750
 2 Adelie  female        3800
 3 Adelie  female        3250
 4 Adelie  <NA>            NA
 5 Adelie  female        3450
 6 Adelie  male          3650
 7 Adelie  female        3625
 8 Adelie  male          4675
 9 Adelie  <NA>          3475
10 Adelie  <NA>          4250
# … with 334 more rows
```
…
:::

::: {.column width=55%}

::: {.cell}

```{.r .cell-code  code-line-numbers="3"}
penguins |>
  select(species, sex, body_mass_g) |>
  arrange(desc(body_mass_g))
```

::: {.cell-output .cell-output-stdout}
```
# A tibble: 344 × 3
   species sex   body_mass_g
   <fct>   <fct>       <int>
 1 Gentoo  male         6300
 2 Gentoo  male         6050
 3 Gentoo  male         6000
 4 Gentoo  male         6000
 5 Gentoo  male         5950
 6 Gentoo  male         5950
 7 Gentoo  male         5850
 8 Gentoo  male         5850
 9 Gentoo  male         5850
10 Gentoo  male         5800
# … with 334 more rows
```
…
Currently the **year** variable in `penguins` is continuous from 2007 to 2009

Usually this isn't what we want and we might want to turn it into a categorical variable instead

The `factor()` function is perfect for this

::: {.cell}

```{.r .cell-code}
penguins |> mutate(year_factor = factor(year, levels = unique(year)))
```

::: {.cell-output .cell-output-stdout}
```
# A tibble: 344 × 9
   species island    bill_length_mm bill_d…¹ flipp…² body_…³ sex    year year_…⁴
   <fct>   <fct>              <dbl>    <dbl>   <int>   <int> <fct> <int> <fct>  
 1 Adelie  Torgersen           39.1     18.7     181    3750 male   2007 2007   
 2 Adelie  Torgersen           39.5     17.4     186    3800 fema…  2007 2007   
 3 Adelie  Torgersen           40.3     18       195    3250 fema…  2007 2007   
 4 Adelie  Torgersen           NA       NA        NA      NA <NA>   2007 2007   
 5 Adelie  Torgersen           36.7     19.3     193    3450 fema…  2007 2007   
 6 Adelie  Torgersen           39.3     20.6     190    3650 male   2007 2007   
 7 Adelie  Torgersen           38.9     17.8     181    3625 fema…  2007 2007   
 8 Adelie  Torgersen           39.2     19.6     195    4675 male   2007 2007   
 9 Adelie  Torgersen           34.1     18.1     193    3475 <NA>   2007 2007   
10 Adelie  Torgersen           42       20.2     190    4250 <NA>   2007 2007   
# … with 334 more rows, and abbreviated variable names ¹​bill_depth_mm,
#   ²​flipper_length_mm, ³​body_mass_g, ⁴​year_factor
```
…
### Mutate

#### What does this chunk do?
::: {.cell}

```{.r .cell-code  code-line-numbers="3"}
penguins |>
  select(species, island) |>
  mutate(ISLAND = str_to_upper(island))
```

::: {.cell-output .cell-output-stdout}
```
# A tibble: 344 × 3
   species island    ISLAND   
   <fct>   <fct>     <chr>    
 1 Adelie  Torgersen TORGERSEN
 2 Adelie  Torgersen TORGERSEN
 3 Adelie  Torgersen TORGERSEN
 4 Adelie  Torgersen TORGERSEN
 5 Adelie  Torgersen TORGERSEN
 6 Adelie  Torgersen TORGERSEN
 7 Adelie  Torgersen TORGERSEN
 8 Adelie  Torgersen TORGERSEN
 9 Adelie  Torgersen TORGERSEN
10 Adelie  Torgersen TORGERSEN
# … with 334 more rows
```
…
### Join

#### How about this one?
::: {.cell}

```{.r .cell-code  code-line-numbers="4"}
penguins |>
  select(species, island) |>
  mutate(ISLAND = str_to_upper(island)) |>
  mutate(species_island = str_c(species, ISLAND, sep = "_"))
```

::: {.cell-output .cell-output-stdout}
```
# A tibble: 344 × 4
   species island    ISLAND    species_island  
   <fct>   <fct>     <chr>     <chr>           
 1 Adelie  Torgersen TORGERSEN Adelie_TORGERSEN
 2 Adelie  Torgersen TORGERSEN Adelie_TORGERSEN
 3 Adelie  Torgersen TORGERSEN Adelie_TORGERSEN
 4 Adelie  Torgersen TORGERSEN Adelie_TORGERSEN
 5 Adelie  Torgersen TORGERSEN Adelie_TORGERSEN
 6 Adelie  Torgersen TORGERSEN Adelie_TORGERSEN
 7 Adelie  Torgersen TORGERSEN Adelie_TORGERSEN
 8 Adelie  Torgersen TORGERSEN Adelie_TORGERSEN
 9 Adelie  Torgersen TORGERSEN Adelie_TORGERSEN
10 Adelie  Torgersen TORGERSEN Adelie_TORGERSEN
# … with 334 more rows
```
…
#### Both penguin datasets are already tidy!

We can pretend that `penguins` wasn't tidy and that it looked instead like `untidy_penguins` below, where **body_mass_g** was recorded separately for *male*, *female*, and *NA* **sex** penguins.

::: {.cell}

```{.r .cell-code}
untidy_penguins <- penguins |> pivot_wider(names_from = sex, values_from = body_mass_g)
untidy_penguins
```

::: {.cell-output .cell-output-stdout}
```
# A tibble: 344 × 9
   species island    bill_length_mm bill_dept…¹ flipp…²  year  male female  `NA`
   <fct>   <fct>              <dbl>       <dbl>   <int> <int> <int>  <int> <int>
 1 Adelie  Torgersen           39.1        18.7     181  2007  3750     NA    NA
 2 Adelie  Torgersen           39.5        17.4     186  2007    NA   3800    NA
 3 Adelie  Torgersen           40.3        18       195  2007    NA   3250    NA
 4 Adelie  Torgersen           NA          NA        NA  2007    NA     NA    NA
 5 Adelie  Torgersen           36.7        19.3     193  2007    NA   3450    NA
 6 Adelie  Torgersen           39.3        20.6     190  2007  3650     NA    NA
 7 Adelie  Torgersen           38.9        17.8     181  2007    NA   3625    NA
 8 Adelie  Torgersen           39.2        19.6     195  2007  4675     NA    NA
 9 Adelie  Torgersen           34.1        18.1     193  2007    NA     NA  3475
10 Adelie  Torgersen           42          20.2     190  2007    NA     NA  4250
# … with 334 more rows, and abbreviated variable names ¹​bill_depth_mm,
#   ²​flipper_length_mm
```
…
We'll use the help of `pivot_longer()`

::: {.cell}

```{.r .cell-code  code-line-numbers="2,3,4"}
untidy_penguins |>
  pivot_longer(cols = male:`NA`,           
               names_to = "sex",           
               values_to = "body_mass_g")
```

::: {.cell-output .cell-output-stdout}
```
# A tibble: 1,032 × 8
   species island    bill_length_mm bill_depth_mm flipper_…¹  year sex   body_…²
   <fct>   <fct>              <dbl>         <dbl>      <int> <int> <chr>   <int>
 1 Adelie  Torgersen           39.1          18.7        181  2007 male     3750
 2 Adelie  Torgersen           39.1          18.7        181  2007 fema…      NA
 3 Adelie  Torgersen           39.1          18.7        181  2007 NA         NA
 4 Adelie  Torgersen           39.5          17.4        186  2007 male       NA
 5 Adelie  Torgersen           39.5          17.4        186  2007 fema…    3800
 6 Adelie  Torgersen           39.5          17.4        186  2007 NA         NA
 7 Adelie  Torgersen           40.3          18          195  2007 male       NA
 8 Adelie  Torgersen           40.3          18          195  2007 fema…    3250
 9 Adelie  Torgersen           40.3          18          195  2007 NA         NA
10 Adelie  Torgersen           NA            NA           NA  2007 male       NA
# … with 1,022 more rows, and abbreviated variable names ¹​flipper_length_mm,
#   ²​body_mass_g
```
…
### Read data in

Recall that `palmperpenguins` includes raw data as well

::: {.cell}

```{.r .cell-code}
penguins_raw <- palmerpenguins::penguins_raw
penguins_raw
```

::: {.cell-output .cell-output-stdout}
```
# A tibble: 344 × 17
   studyName Sample Num…¹ Species Region Island Stage Indiv…² Clutc…³ `Date Egg`
   <chr>            <dbl> <chr>   <chr>  <chr>  <chr> <chr>   <chr>   <date>    
 1 PAL0708              1 Adelie… Anvers Torge… Adul… N1A1    Yes     2007-11-11
 2 PAL0708              2 Adelie… Anvers Torge… Adul… N1A2    Yes     2007-11-11
 3 PAL0708              3 Adelie… Anvers Torge… Adul… N2A1    Yes     2007-11-16
 4 PAL0708              4 Adelie… Anvers Torge… Adul… N2A2    Yes     2007-11-16
 5 PAL0708              5 Adelie… Anvers Torge… Adul… N3A1    Yes     2007-11-16
 6 PAL0708              6 Adelie… Anvers Torge… Adul… N3A2    Yes     2007-11-16
 7 PAL0708              7 Adelie… Anvers Torge… Adul… N4A1    No      2007-11-15
 8 PAL0708              8 Adelie… Anvers Torge… Adul… N4A2    No      2007-11-15
 9 PAL0708              9 Adelie… Anvers Torge… Adul… N5A1    Yes     2007-11-09
10 PAL0708             10 Adelie… Anvers Torge… Adul… N5A2    Yes     2007-11-09
# … with 334 more rows, 8 more variables: `Culmen Length (mm)` <dbl>,
#   `Culmen Depth (mm)` <dbl>, `Flipper Length (mm)` <dbl>,
#   `Body Mass (g)` <dbl>, Sex <chr>, `Delta 15 N (o/oo)` <dbl>,
#   `Delta 13 C (o/oo)` <dbl>, Comments <chr>, and abbreviated variable names
#   ¹​`Sample Number`, ²​`Individual ID`, ³​`Clutch Completion`
```
…
### View date-times

In the raw data, `Date Egg` is the date that a penguin nest in the study was observed with 1 egg

Check out `?penguins_raw` to learn more about the other variables in this dataset

::: {.cell}

```{.r .cell-code}
penguins_raw |> select(Species, Sex, `Date Egg`)
```

::: {.cell-output .cell-output-stdout}
```
# A tibble: 344 × 3
   Species                             Sex    `Date Egg`
   <chr>                               <chr>  <date>    
 1 Adelie Penguin (Pygoscelis adeliae) MALE   2007-11-11
 2 Adelie Penguin (Pygoscelis adeliae) FEMALE 2007-11-11
 3 Adelie Penguin (Pygoscelis adeliae) FEMALE 2007-11-16
 4 Adelie Penguin (Pygoscelis adeliae) <NA>   2007-11-16
 5 Adelie Penguin (Pygoscelis adeliae) FEMALE 2007-11-16
 6 Adelie Penguin (Pygoscelis adeliae) MALE   2007-11-16
 7 Adelie Penguin (Pygoscelis adeliae) FEMALE 2007-11-15
 8 Adelie Penguin (Pygoscelis adeliae) MALE   2007-11-15
 9 Adelie Penguin (Pygoscelis adeliae) <NA>   2007-11-09
10 Adelie Penguin (Pygoscelis adeliae) <NA>   2007-11-09
# … with 334 more rows
```
…
In addition, `month()` provides some options to let us decide whether we want the month displayed as a character string, and whether we want that string abbreviated

::: {.cell}

```{.r .cell-code  code-line-numbers="3-5"}
penguins_raw |> 
  select(Species, Sex, `Date Egg`) |> 
  mutate(Year = year(`Date Egg`),
         Month = month(`Date Egg`, label = TRUE, abbr = FALSE),
         Day = day(`Date Egg`))
```

::: {.cell-output .cell-output-stdout}
```
# A tibble: 344 × 6
   Species                             Sex    `Date Egg`  Year Month      Day
   <chr>                               <chr>  <date>     <dbl> <ord>    <int>
 1 Adelie Penguin (Pygoscelis adeliae) MALE   2007-11-11  2007 November    11
 2 Adelie Penguin (Pygoscelis adeliae) FEMALE 2007-11-11  2007 November    11
 3 Adelie Penguin (Pygoscelis adeliae) FEMALE 2007-11-16  2007 November    16
 4 Adelie Penguin (Pygoscelis adeliae) <NA>   2007-11-16  2007 November    16
 5 Adelie Penguin (Pygoscelis adeliae) FEMALE 2007-11-16  2007 November    16
 6 Adelie Penguin (Pygoscelis adeliae) MALE   2007-11-16  2007 November    16
 7 Adelie Penguin (Pygoscelis adeliae) FEMALE 2007-11-15  2007 November    15
 8 Adelie Penguin (Pygoscelis adeliae) MALE   2007-11-15  2007 November    15
 9 Adelie Penguin (Pygoscelis adeliae) <NA>   2007-11-09  2007 November     9
10 Adelie Penguin (Pygoscelis adeliae) <NA>   2007-11-09  2007 November     9
# … with 334 more rows
```
…
